Introduction to Tidyverse
…
mutate / transmute

group-by + summarize

and the pipe operator %>% to bind them all.

Preparation

We are going to use secimler package as a data source and apply dplyr commmands. (See instructions to install.)

library(tidyverse)
library(secimler)
secim150607g  #Our data set

## # A tibble: 176,831 x 30
##       il bolge   ilce               cevre cevre_turu sandik kayitli_secmen
##    <chr> <dbl>  <chr>               <chr>      <chr>  <dbl>          <dbl>
##  1 Adana     1    li               Genel     Toplam   4426        1477328
##  2 Adana     1    li       l-le Genel     Toplam   4426        1477328
##  3 Adana     1 Seyhan               Genel     Toplam   1473         529658
##  4 Adana     1 Seyhan       l-le Genel     Toplam   1473         529658
##  5 Adana     1 Seyhan Ahmet Remzi Yreir    Mahalle   3001            341
##  6 Adana     1 Seyhan Ahmet Remzi Yreir    Mahalle   3002            339
##  7 Adana     1 Seyhan Ahmet Remzi Yreir    Mahalle   3003            341
##  8 Adana     1 Seyhan              Akkap    Mahalle   2001            366
##  9 Adana     1 Seyhan              Akkap    Mahalle   2002            365
## 10 Adana     1 Seyhan              Akkap    Mahalle   2003            366
## # ... with 176,821 more rows, and 23 more variables: oy_kullanan <dbl>,
## #   gecerli_oy <dbl>, ak_parti <dbl>, chp <dbl>, mhp <dbl>, hdp <dbl>,
## #   dyp <dbl>, anadolu_partisi <dbl>, hak_par <dbl>, kp <dbl>,
## #   millet_partisi <dbl>, hap <dbl>, mep <dbl>, turk_parti <dbl>,
## #   hkp <dbl>, ldp <dbl>, saadet_partisi <dbl>, dsp <dbl>,
## #   yurt_parti <dbl>, dp <dbl>, vatan_partisi <dbl>, btp <dbl>,
## #   bagimsiz <dbl>
…
select / rename

It is basically column select and renaming.

secim150607g %>% select(il, cevre, kayitli_secmen)

## # A tibble: 176,831 x 3
##       il               cevre kayitli_secmen
##    <chr>               <chr>          <dbl>
##  1 Adana               Genel        1477328
##  2 Adana       l-le Genel        1477328
##  3 Adana               Genel         529658
##  4 Adana       l-le Genel         529658
##  5 Adana Ahmet Remzi Yreir            341
##  6 Adana Ahmet Remzi Yreir            339
##  7 Adana Ahmet Remzi Yreir            341
##  8 Adana              Akkap            366
##  9 Adana              Akkap            365
## 10 Adana              Akkap            366
## # ... with 176,821 more rows

select / rename

secim150607g %>% rename(city = il)

## # A tibble: 176,831 x 30
##     city bolge   ilce               cevre cevre_turu sandik kayitli_secmen
##    <chr> <dbl>  <chr>               <chr>      <chr>  <dbl>          <dbl>
##  1 Adana     1    li               Genel     Toplam   4426        1477328
##  2 Adana     1    li       l-le Genel     Toplam   4426        1477328
##  3 Adana     1 Seyhan               Genel     Toplam   1473         529658
##  4 Adana     1 Seyhan       l-le Genel     Toplam   1473         529658
##  5 Adana     1 Seyhan Ahmet Remzi Yreir    Mahalle   3001            341
##  6 Adana     1 Seyhan Ahmet Remzi Yreir    Mahalle   3002            339
##  7 Adana     1 Seyhan Ahmet Remzi Yreir    Mahalle   3003            341
##  8 Adana     1 Seyhan              Akkap    Mahalle   2001            366
##  9 Adana     1 Seyhan              Akkap    Mahalle   2002            365
## 10 Adana     1 Seyhan              Akkap    Mahalle   2003            366
## # ... with 176,821 more rows, and 23 more variables: oy_kullanan <dbl>,
## #   gecerli_oy <dbl>, ak_parti <dbl>, chp <dbl>, mhp <dbl>, hdp <dbl>,
## #   dyp <dbl>, anadolu_partisi <dbl>, hak_par <dbl>, kp <dbl>,
## #   millet_partisi <dbl>, hap <dbl>, mep <dbl>, turk_parti <dbl>,
## #   hkp <dbl>, ldp <dbl>, saadet_partisi <dbl>, dsp <dbl>,
## #   yurt_parti <dbl>, dp <dbl>, vatan_partisi <dbl>, btp <dbl>,
## #   bagimsiz <dbl>

select / rename

You can rename with select also.

secim150607g %>% select(city = il, district = cevre, n_voters = kayitli_secmen)

## # A tibble: 176,831 x 3
##     city            district n_voters
##    <chr>               <chr>    <dbl>
##  1 Adana               Genel  1477328
##  2 Adana       l-le Genel  1477328
##  3 Adana               Genel   529658
##  4 Adana       l-le Genel   529658
##  5 Adana Ahmet Remzi Yreir      341
##  6 Adana Ahmet Remzi Yreir      339
##  7 Adana Ahmet Remzi Yreir      341
##  8 Adana              Akkap      366
##  9 Adana              Akkap      365
## 10 Adana              Akkap      366
## # ... with 176,821 more rows

filter / distinct

filter returns the rows given the criteria.

secim150607g %>% filter(il == "stanbul")

## # A tibble: 27,977 x 30
##          il bolge   ilce          cevre cevre_turu sandik kayitli_secmen
##       <chr> <dbl>  <chr>          <chr>      <chr>  <dbl>          <dbl>
##  1 stanbul     1    li          Genel     Toplam  10055        3682297
##  2 stanbul     1    li  l-le Genel     Toplam  10055        3682297
##  3 stanbul     1 Adalar          Genel     Toplam     37          12087
##  4 stanbul     1 Adalar  l-le Genel     Toplam     37          12087
##  5 stanbul     1 Adalar    Burgazadas    Mahalle   1001            309
##  6 stanbul     1 Adalar    Burgazadas    Mahalle   1002            312
##  7 stanbul     1 Adalar    Burgazadas    Mahalle   1003            310
##  8 stanbul     1 Adalar    Burgazadas    Mahalle   1004            310
##  9 stanbul     1 Adalar Bykada-Maden    Mahalle   1005            277
## 10 stanbul     1 Adalar Bykada-Maden    Mahalle   1006            275
## # ... with 27,967 more rows, and 23 more variables: oy_kullanan <dbl>,
## #   gecerli_oy <dbl>, ak_parti <dbl>, chp <dbl>, mhp <dbl>, hdp <dbl>,
## #   dyp <dbl>, anadolu_partisi <dbl>, hak_par <dbl>, kp <dbl>,
## #   millet_partisi <dbl>, hap <dbl>, mep <dbl>, turk_parti <dbl>,
## #   hkp <dbl>, ldp <dbl>, saadet_partisi <dbl>, dsp <dbl>,
## #   yurt_parti <dbl>, dp <dbl>, vatan_partisi <dbl>, btp <dbl>,
## #   bagimsiz <dbl>

filter / distinct

secim150607g %>% filter(il == "zmir" & kayitli_secmen > 99 & 
    kayitli_secmen <= 300)

## # A tibble: 925 x 30
##       il bolge  ilce         cevre cevre_turu sandik kayitli_secmen
##    <chr> <dbl> <chr>         <chr>      <chr>  <dbl>          <dbl>
##  1 zmir     1 eme         Ard    Mahalle   1026            191
##  2 zmir     1 eme         Ard    Mahalle   1027            192
##  3 zmir     1 eme       Boyalk    Mahalle   1028            199
##  4 zmir     1 eme       Boyalk    Mahalle   1029            199
##  5 zmir     1 eme   Celal Bayar    Mahalle   1030            257
##  6 zmir     1 eme   Celal Bayar    Mahalle   1031            255
##  7 zmir     1 eme       akabey    Mahalle   1034            138
##  8 zmir     1 eme Fahrettinpaa    Mahalle   1044            279
##  9 zmir     1 eme         Ildr    Mahalle   1048            275
## 10 zmir     1 eme         Ildr    Mahalle   1049            276
## # ... with 915 more rows, and 23 more variables: oy_kullanan <dbl>,
## #   gecerli_oy <dbl>, ak_parti <dbl>, chp <dbl>, mhp <dbl>, hdp <dbl>,
## #   dyp <dbl>, anadolu_partisi <dbl>, hak_par <dbl>, kp <dbl>,
## #   millet_partisi <dbl>, hap <dbl>, mep <dbl>, turk_parti <dbl>,
## #   hkp <dbl>, ldp <dbl>, saadet_partisi <dbl>, dsp <dbl>,
## #   yurt_parti <dbl>, dp <dbl>, vatan_partisi <dbl>, btp <dbl>,
## #   bagimsiz <dbl>

filter / distinct

distinct removes the duplicate values.

secim150607g %>% distinct(il, .keep_all = TRUE)

## # A tibble: 81 x 30
##                il bolge  ilce cevre cevre_turu sandik kayitli_secmen
##             <chr> <dbl> <chr> <chr>      <chr>  <dbl>          <dbl>
##  1          Adana     1   li Genel     Toplam   4426        1477328
##  2       Adyaman     1   li Genel     Toplam   1386         380745
##  3 Afyonkarahisar     1   li Genel     Toplam   1766         493765
##  4           Ar     1   li Genel     Toplam   1153         291539
##  5         Amasya     1   li Genel     Toplam    916         238506
##  6         Ankara     1   li Genel     Toplam   5936        2074389
##  7        Antalya     1   li Genel     Toplam   4691        1568153
##  8         Artvin     1   li Genel     Toplam    621         129961
##  9          Aydn     1   li Genel     Toplam   2452         772649
## 10      Balkesir     1   li Genel     Toplam   3100         906421
## # ... with 71 more rows, and 23 more variables: oy_kullanan <dbl>,
## #   gecerli_oy <dbl>, ak_parti <dbl>, chp <dbl>, mhp <dbl>, hdp <dbl>,
## #   dyp <dbl>, anadolu_partisi <dbl>, hak_par <dbl>, kp <dbl>,
## #   millet_partisi <dbl>, hap <dbl>, mep <dbl>, turk_parti <dbl>,
## #   hkp <dbl>, ldp <dbl>, saadet_partisi <dbl>, dsp <dbl>,
## #   yurt_parti <dbl>, dp <dbl>, vatan_partisi <dbl>, btp <dbl>,
## #   bagimsiz <dbl>

arrange

arrange is to order by columns.

secim150607g %>% distinct(il, .keep_all = TRUE) %>% arrange(desc(kayitli_secmen))

## # A tibble: 81 x 30
##           il bolge  ilce cevre cevre_turu sandik kayitli_secmen
##        <chr> <dbl> <chr> <chr>      <chr>  <dbl>          <dbl>
##  1  stanbul     1   li Genel     Toplam  10055        3682297
##  2    Ankara     1   li Genel     Toplam   5936        2074389
##  3     Bursa     1   li Genel     Toplam   5968        2028417
##  4   Antalya     1   li Genel     Toplam   4691        1568153
##  5     zmir     1   li Genel     Toplam   4304        1513998
##  6     Adana     1   li Genel     Toplam   4426        1477328
##  7     Konya     1   li Genel     Toplam   4523        1430306
##  8   Kocaeli     1   li Genel     Toplam   3577        1221771
##  9    Mersin     1   li Genel     Toplam   3698        1210552
## 10 Gaziantep     1   li Genel     Toplam   3462        1130109
## # ... with 71 more rows, and 23 more variables: oy_kullanan <dbl>,
## #   gecerli_oy <dbl>, ak_parti <dbl>, chp <dbl>, mhp <dbl>, hdp <dbl>,
## #   dyp <dbl>, anadolu_partisi <dbl>, hak_par <dbl>, kp <dbl>,
## #   millet_partisi <dbl>, hap <dbl>, mep <dbl>, turk_parti <dbl>,
## #   hkp <dbl>, ldp <dbl>, saadet_partisi <dbl>, dsp <dbl>,
## #   yurt_parti <dbl>, dp <dbl>, vatan_partisi <dbl>, btp <dbl>,
## #   bagimsiz <dbl>

mutate / transmute

mutate is used to do operations on columns.

secim150607g %>% distinct(il, .keep_all = TRUE) %>% select(il, 
    sandik, kayitli_secmen, gecerli_oy) %>% mutate(katilim = round(gecerli_oy/kayitli_secmen, 
    2))

## # A tibble: 81 x 5
##                il sandik kayitli_secmen gecerli_oy katilim
##             <chr>  <dbl>          <dbl>      <dbl>   <dbl>
##  1          Adana   4426        1477328    1229817    0.83
##  2       Adyaman   1386         380745     306562    0.81
##  3 Afyonkarahisar   1766         493765     424884    0.86
##  4           Ar   1153         291539     237172    0.81
##  5         Amasya    916         238506     209549    0.88
##  6         Ankara   5936        2074389    1797588    0.87
##  7        Antalya   4691        1568153    1306778    0.83
##  8         Artvin    621         129961     108191    0.83
##  9          Aydn   2452         772649     658731    0.85
## 10      Balkesir   3100         906421     786183    0.87
## # ... with 71 more rows

mutate / transmute

transmute is mutate + select.

secim150607g %>% distinct(il, .keep_all = TRUE) %>% transmute(il, 
    sandik, katilim = round(gecerli_oy/kayitli_secmen, 2))

## # A tibble: 81 x 3
##                il sandik katilim
##             <chr>  <dbl>   <dbl>
##  1          Adana   4426    0.83
##  2       Adyaman   1386    0.81
##  3 Afyonkarahisar   1766    0.86
##  4           Ar   1153    0.81
##  5         Amasya    916    0.88
##  6         Ankara   5936    0.87
##  7        Antalya   4691    0.83
##  8         Artvin    621    0.83
##  9          Aydn   2452    0.85
## 10      Balkesir   3100    0.87
## # ... with 71 more rows
…
geom_tile heatmaps.

geom_histogram histograms.

geom_dotplot, geom_polygon, geom_density,geom_contour,geom_ribbon,geom_area,…

Prepare data

the_df <- secim150607g %>% filter(il == "zmir" & !(cevre_turu %in% 
    c("Cezaevi", "Toplam"))) %>% transmute(county = ilce, district = cevre, 
    district_type = cevre_turu, participation = gecerli_oy/kayitli_secmen, 
    n_voters = kayitli_secmen, n_valid_votes = gecerli_oy)
the_df

## # A tibble: 8,963 x 6
##    county district district_type participation n_voters n_valid_votes
##     <chr>    <chr>         <chr>         <dbl>    <dbl>         <dbl>
##  1  eme  Alaat       Mahalle     0.8442623      366           309
##  2  eme  Alaat       Mahalle     0.8879781      366           325
##  3  eme  Alaat       Mahalle     0.8060109      366           295
##  4  eme  Alaat       Mahalle     0.9068493      365           331
##  5  eme  Alaat       Mahalle     0.7788162      321           250
##  6  eme  Alaat       Mahalle     0.8317757      321           267
##  7  eme  Alaat       Mahalle     0.8535826      321           274
##  8  eme  Alaat       Mahalle     0.7962382      319           254
##  9  eme  Alaat       Mahalle     0.7994100      339           271
## 10  eme  Alaat       Mahalle     0.8230088      339           279
## # ... with 8,953 more rows
…
