Data Visualization with ggplot2
…
Fundamental Plots

Different from dplyr we do not use the pipe (%>%), but the plus sign (+). Actually we do not chain commands in ggplot2, but we start with a canvas and add layers. The canvas is called a ggplot2() function Then for x and y axes, we define an (aes)thetic with the aes() function inside ggplot2.

Scatter Plot

Scatter plot or dot plot is represented by the geom_point(). For instance lets plot votes of AK PARTI and CHP.

We start with preparing our data. We need a data in the long format (hence, pivot_longer function).

plot_df <- raw_df %>% filter(ilce_ADI == "ADALAR") %>% group_by(muhtarlik_ID,muhtarlik_ADI) %>% summarise(AK_PARTI = sum(AK_PARTI), CHP = sum(CHP)) %>% ungroup() %>% pivot_longer(cols=CHP:AK_PARTI,names_to="party",values_to="votes") 
print(plot_df,n=3)

## # A tibble: 10 x 4
##   muhtarlik_ID muhtarlik_ADI  party    votes
##   <chr>        <chr>          <chr>    <dbl>
## 1 95626        BURGAZADA MAH. CHP        874
## 2 95626        BURGAZADA MAH. AK_PARTI   177
## 3 95627        MADEN MAH.     CHP       2070
## #  with 7 more rows
…
