Statistical Models in R: Part 2
…
set.seed(58) #Set the random seed
data(ptitanic) #Call the data

titanic_data <-
ptitanic %>%
select(survived,pclass,sex,age) %>% #Select only required columns
mutate(age=as.numeric(age)) %>% #This is a fix, just for this data set
filter(complete.cases(.)) %>% #Remove all NA including rows
#Split the data into train and test
mutate(train_test = ifelse(runif(nrow(.)) < 0.25,"test","train")) %>%
tbl_df()

print(titanic_data)

## # A tibble: 1,046 x 5
##    survived pclass    sex     age train_test
##      <fctr> <fctr> <fctr>   <dbl>      <chr>
##  1 survived    1st female 29.0000      train
##  2 survived    1st   male  0.9167       test
##  3     died    1st female  2.0000      train
##  4     died    1st   male 30.0000      train
##  5     died    1st female 25.0000      train
##  6 survived    1st   male 48.0000      train
##  7 survived    1st female 63.0000       test
##  8     died    1st   male 39.0000      train
##  9 survived    1st female 53.0000      train
## 10     died    1st   male 71.0000      train
## # ... with 1,036 more rows
…
